Error: ASSERTION FAIL: Failed
File: /home/2020/klee/bin/../include/klee-test-comp.c
Line: 157
assembly.ll line: 25
Stack: 
	#000000025 in __VERIFIER_error_klee_main_module () at /home/2020/klee/bin/../include/klee-test-comp.c:157
	#100000039 in __VERIFIER_assert_klee_main_module () at ../../benchmarks/bekkouche_benchmark/triperim/TriPerimetreKOV2/TriPerimetreKOV2.c:27
	#200000224 in foo_klee_main_module (, , ) at ../../benchmarks/bekkouche_benchmark/triperim/TriPerimetreKOV2/TriPerimetreKOV2.c:99
	#300000233 in main () at ../../benchmarks/bekkouche_benchmark/triperim/TriPerimetreKOV2/TriPerimetreKOV2.c:105
