Error: abort failure
File: ../fault_localization_tarantula/evaluation/sv-benchmark/arrays/array_mul_init/array_mul_init.c
Line: 3
assembly.ll line: 30
Stack: 
	#000000030 in __VERIFIER_assert_klee_main_module () at ../fault_localization_tarantula/evaluation/sv-benchmark/arrays/array_mul_init/array_mul_init.c:3
	#100000127 in main () at ../fault_localization_tarantula/evaluation/sv-benchmark/arrays/array_mul_init/array_mul_init.c:31
