2020-07-17 15:45:27:161	INFO	CPAMain.detectFrontendLanguageIfNecessary	Language C detected and set for analysis

2020-07-17 15:45:27:235	INFO	ResourceLimitChecker.fromConfiguration	Using the following resource limits: CPU-time limit of 900s

2020-07-17 15:45:27:434	INFO	CPAchecker.run	CPAchecker 1.9.2-svn / symbolicExecution (OpenJDK 64-Bit Server VM 11.0.7) started

2020-07-17 15:45:27:480	INFO	CPAchecker.parse	Parsing CFA from file(s) "../fault_localization_tarantula/benchmarks/benchmarks/tarantula/benchmarks/sv-benchmark/arrays/array_mul_init.c"

2020-07-17 15:45:31:103	INFO	CPAchecker.runAlgorithm	Starting analysis ...

2020-07-17 15:45:32:597	INFO	CounterexampleCheckAlgorithm.checkCounterexample	Error path found, starting counterexample check with CPACHECKER.

2020-07-17 15:45:33:294	INFO	CounterexampleCheck:ResourceLimitChecker.fromConfiguration	Using the following resource limits: CPU-time limit of 900s

2020-07-17 15:45:33:866	INFO	CounterexampleCheck:PredicateCPA:PredicateCPA.<init>	Using predicate analysis with MathSAT5 version 5.6.3 (973d615f065f) (May 12 2020 08:45:26, gmp 6.1.0, gcc 4.8.5, 64-bit, reentrant).

2020-07-17 15:45:34:433	INFO	CounterexampleCheckAlgorithm.checkCounterexample	Error path found and confirmed by counterexample check with CPACHECKER.

2020-07-17 15:45:34:443	INFO	DStarAlgorithm.run	Start DStar algorithm ... 

2020-07-17 15:45:34:557	INFO	DStarAlgorithm.runDStarProcess	[Error suspected on line(s): 3 (Score: 50). (Score: 50)
       HINT: Error suspected on line 3. (Score: 6)
 (0.0%)
       HINT: Error suspected on line 3. (Score: 33)
 (0.0%)
       HINT: Error suspected on line 3. (Score: 50)
 (0.0%)
       HINT: Error suspected on line 3. (Score: 50)
 (0.0%)
, Error suspected on line(s): 31 (Score: 33). (Score: 33)
       HINT: Error suspected on line 31. (Score: 5)
 (0.0%)
       HINT: Error suspected on line 31. (Score: 14)
 (0.0%)
       HINT: Error suspected on line 31. (Score: 6)
 (0.0%)
       HINT: Error suspected on line 31. (Score: 33)
 (0.0%)
, Error suspected on line(s): 21 (Score: 23). (Score: 23)
       HINT: Error suspected on line 21. (Score: 20)
 (0.0%)
       HINT: Error suspected on line 21. (Score: 3)
 (0.0%)
       HINT: Error suspected on line 21. (Score: 20)
 (0.0%)
       HINT: Error suspected on line 21. (Score: 23)
 (0.0%)
, Error suspected on line(s): 13 (Score: 20). (Score: 20)
       HINT: Error suspected on line 13. (Score: 6)
 (0.0%)
       HINT: Error suspected on line 13. (Score: 20)
 (0.0%)
       HINT: Error suspected on line 13. (Score: 20)
 (0.0%)
       HINT: Error suspected on line 13. (Score: 6)
 (0.0%)
       HINT: Error suspected on line 13. (Score: 6)
 (0.0%)
, Error suspected on line(s): 15 (Score: 20). (Score: 20)
       HINT: Error suspected on line 15. (Score: 20)
 (0.0%)
, Error suspected on line(s): 16 (Score: 20). (Score: 20)
       HINT: Error suspected on line 16. (Score: 20)
 (0.0%)
, Error suspected on line(s): 19 (Score: 20). (Score: 20)
       HINT: Error suspected on line 19. (Score: 6)
 (0.0%)
       HINT: Error suspected on line 19. (Score: 20)
 (0.0%)
       HINT: Error suspected on line 19. (Score: 20)
 (0.0%)
       HINT: Error suspected on line 19. (Score: 6)
 (0.0%)
       HINT: Error suspected on line 19. (Score: 6)
 (0.0%)
, Error suspected on line(s): 1 (Score: 6). (Score: 6)
       HINT: Error suspected on line 1. (Score: 6)
 (0.0%)
, Error suspected on line(s): 2 (Score: 6). (Score: 6)
       HINT: Error suspected on line 2. (Score: 6)
 (0.0%)
, Error suspected on line(s): 5 (Score: 6). (Score: 6)
       HINT: Error suspected on line 5. (Score: 6)
 (0.0%)
, Error suspected on line(s): 6 (Score: 6). (Score: 6)
       HINT: Error suspected on line 6. (Score: 6)
 (0.0%)
, Error suspected on line(s): 8 (Score: 6). (Score: 6)
       HINT: Error suspected on line 8. (Score: 6)
 (0.0%)
, Error suspected on line(s): 9 (Score: 6). (Score: 6)
       HINT: Error suspected on line 9. (Score: 6)
 (0.0%)
, Error suspected on line(s): 10 (Score: 6). (Score: 6)
       HINT: Error suspected on line 10. (Score: 6)
 (0.0%)
, Error suspected on line(s): 11 (Score: 6). (Score: 6)
       HINT: Error suspected on line 11. (Score: 6)
 (0.0%)
, Error suspected on line(s): 29 (Score: 6). (Score: 6)
       HINT: Error suspected on line 29. (Score: 5)
 (0.0%)
       HINT: Error suspected on line 29. (Score: 6)
 (0.0%)
       HINT: Error suspected on line 29. (Score: 6)
 (0.0%)
, Error suspected on line(s): 23 (Score: 3). (Score: 3)
       HINT: Error suspected on line 23. (Score: 3)
 (0.0%)
, Error suspected on line(s): 24 (Score: 3). (Score: 3)
       HINT: Error suspected on line 24. (Score: 3)
 (0.0%)
, Error suspected on line(s): 25 (Score: 3). (Score: 3)
       HINT: Error suspected on line 25. (Score: 3)
 (0.0%)
]

2020-07-17 15:45:34:613	INFO	CPAchecker.runAlgorithm	Stopping analysis ...

