# 1 "../fault_localization_tarantula/evaluation/sv-benchmark/loop-lit/gj2007b/gj2007b.c"
# 1 "<built-in>"
# 1 "<command-line>"
# 31 "<command-line>"
# 1 "/usr/include/stdc-predef.h" 1 3 4
# 32 "<command-line>" 2
# 1 "../fault_localization_tarantula/evaluation/sv-benchmark/loop-lit/gj2007b/gj2007b.c"
extern __VERIFIER_nondet_int();
extern void __VERIFIER_error();

void __VERIFIER_assert(int cond) {
  if (!(cond)) {
    ERROR: __VERIFIER_error();
  }
  return;
}


int main() {
    int x = 0;
    int m = 0;
    int n = __VERIFIER_nondet_int();
    while(x < n) {
 if(__VERIFIER_nondet_int()) {
     m = x;
      m = m+10;
 }
 x = x + 1;
    }
    __VERIFIER_assert((m >= 0 || n <= 0));
    __VERIFIER_assert((m < n || n <= 0));
    return 0;
}
