2020-07-17 13:56:08:825	INFO	CPAMain.detectFrontendLanguageIfNecessary	Language C detected and set for analysis

2020-07-17 13:56:08:922	INFO	ResourceLimitChecker.fromConfiguration	Using the following resource limits: CPU-time limit of 900s

2020-07-17 13:56:09:126	INFO	CPAchecker.run	CPAchecker 1.9.2-svn / symbolicExecution (OpenJDK 64-Bit Server VM 11.0.7) started

2020-07-17 13:56:09:178	INFO	CPAchecker.parse	Parsing CFA from file(s) "../fault_localization_tarantula/benchmarks/benchmarks/tarantula/benchmarks/bekkouche_benchmark/absminus/AbsMinusKO2.c"

2020-07-17 13:56:10:729	WARNING	CheckBindingVisitor.visit	Undefined function __VERIFIER_nondet_int found, first called in line 48

2020-07-17 13:56:12:428	INFO	CPAchecker.runAlgorithm	Starting analysis ...

2020-07-17 13:56:12:976	INFO	CounterexampleCheckAlgorithm.checkCounterexample	Error path found, starting counterexample check with CPACHECKER.

2020-07-17 13:56:13:486	INFO	CounterexampleCheck:ResourceLimitChecker.fromConfiguration	Using the following resource limits: CPU-time limit of 900s

2020-07-17 13:56:13:740	INFO	CounterexampleCheck:PredicateCPA:PredicateCPA.<init>	Using predicate analysis with MathSAT5 version 5.6.3 (973d615f065f) (May 12 2020 08:45:26, gmp 6.1.0, gcc 4.8.5, 64-bit, reentrant).

2020-07-17 13:56:13:877	WARNING	CounterexampleCheck:PredicateCPA:CtoFormulaConverter.getReturnType	line 48: Return type of function __VERIFIER_nondet_int is void, but result is used as type int: __CPAchecker_TMP_0 = __VERIFIER_nondet_int();

2020-07-17 13:56:13:885	WARNING	CounterexampleCheck:PredicateCPA:CtoFormulaConverter.getReturnType	line 48: Return type of function __VERIFIER_nondet_int is void, but result is used as type int: __CPAchecker_TMP_1 = __VERIFIER_nondet_int();

2020-07-17 13:56:14:037	INFO	CounterexampleCheckAlgorithm.checkCounterexample	Error path found and confirmed by counterexample check with CPACHECKER.

2020-07-17 13:56:14:057	INFO	OchiaiAlgorithm.run	Start ochiai algorithm ... 

2020-07-17 13:56:14:166	INFO	OchiaiAlgorithm.runOchiaiProcess	[Error suspected on line(s): 34 (Score: 100). (Score: 100)
       HINT: Error suspected on line 34. (Score: 100)
 (0.0%)
, Error suspected on line(s): 21 (Score: 100). (Score: 100)
       HINT: Error suspected on line 21. (Score: 100)
 (0.0%)
, Error suspected on line(s): 22 (Score: 100). (Score: 100)
       HINT: Error suspected on line 22. (Score: 100)
 (0.0%)
       HINT: Error suspected on line 22. (Score: 100)
 (0.0%)
, Error suspected on line(s): 31 (Score: 100). (Score: 100)
       HINT: Error suspected on line 31. (Score: 100)
 (0.0%)
, Error suspected on line(s): 38 (Score: 70). (Score: 70)
       HINT: Error suspected on line 38. (Score: 70)
 (0.0%)
, Error suspected on line(s): 41 (Score: 70). (Score: 70)
       HINT: Error suspected on line 41. (Score: 70)
 (0.0%)
       HINT: Error suspected on line 41. (Score: 57)
 (0.0%)
       HINT: Error suspected on line 41. (Score: 70)
 (0.0%)
       HINT: Error suspected on line 41. (Score: 57)
 (0.0%)
       HINT: Error suspected on line 41. (Score: 70)
 (0.0%)
, Error suspected on line(s): 45 (Score: 57). (Score: 57)
       HINT: Error suspected on line 45. (Score: 57)
 (0.0%)
, Error suspected on line(s): 16 (Score: 57). (Score: 57)
       HINT: Error suspected on line 16. (Score: 57)
 (0.0%)
, Error suspected on line(s): 48 (Score: 57). (Score: 57)
       HINT: Error suspected on line 48. (Score: 57)
 (0.0%)
       HINT: Error suspected on line 48. (Score: 57)
 (0.0%)
       HINT: Error suspected on line 48. (Score: 57)
 (0.0%)
       HINT: Error suspected on line 48. (Score: 57)
 (0.0%)
       HINT: Error suspected on line 48. (Score: 57)
 (0.0%)
, Error suspected on line(s): 17 (Score: 57). (Score: 57)
       HINT: Error suspected on line 17. (Score: 57)
 (0.0%)
, Error suspected on line(s): 20 (Score: 57). (Score: 57)
       HINT: Error suspected on line 20. (Score: 57)
 (0.0%)
, Error suspected on line(s): 28 (Score: 57). (Score: 57)
       HINT: Error suspected on line 28. (Score: 57)
 (0.0%)
, Error suspected on line(s): 29 (Score: 57). (Score: 57)
       HINT: Error suspected on line 29. (Score: 57)
 (0.0%)
, Error suspected on line(s): 30 (Score: 57). (Score: 57)
       HINT: Error suspected on line 30. (Score: 57)
 (0.0%)
]

2020-07-17 13:56:14:195	INFO	CPAchecker.runAlgorithm	Stopping analysis ...

