Error: ASSERTION FAIL: Failed
File: /home/2020/klee/bin/../include/klee-test-comp.c
Line: 157
assembly.ll line: 25
Stack: 
	#000000025 in __VERIFIER_error_klee_main_module () at /home/2020/klee/bin/../include/klee-test-comp.c:157
	#100000039 in __VERIFIER_assert_klee_main_module () at ../../benchmarks/bekkouche_benchmark/maxmin/Maxmin6varKO04/Maxmin6varKO4.c:20
	#200000296 in foo_klee_main_module (, , , , , ) at ../../benchmarks/bekkouche_benchmark/maxmin/Maxmin6varKO04/Maxmin6varKO4.c:185
	#300000308 in main () at ../../benchmarks/bekkouche_benchmark/maxmin/Maxmin6varKO04/Maxmin6varKO4.c:193
