2020-07-17 13:21:22:855	INFO	CPAMain.detectFrontendLanguageIfNecessary	Language C detected and set for analysis

2020-07-17 13:21:22:957	INFO	ResourceLimitChecker.fromConfiguration	Using the following resource limits: CPU-time limit of 900s

2020-07-17 13:21:23:210	INFO	CPAchecker.run	CPAchecker 1.9.2-svn / symbolicExecution (OpenJDK 64-Bit Server VM 11.0.7) started

2020-07-17 13:21:23:316	INFO	CPAchecker.parse	Parsing CFA from file(s) "../fault_localization_tarantula/benchmarks/benchmarks/tarantula/benchmarks/bekkouche_benchmark/MinmaxKO.c"

2020-07-17 13:21:24:876	WARNING	CheckBindingVisitor.visit	Undefined function __VERIFIER_nondet_int found, first called in line 48

2020-07-17 13:21:26:375	INFO	CPAchecker.runAlgorithm	Starting analysis ...

2020-07-17 13:21:27:505	INFO	CounterexampleCheckAlgorithm.checkCounterexample	Error path found, starting counterexample check with CPACHECKER.

2020-07-17 13:21:28:524	INFO	CounterexampleCheck:ResourceLimitChecker.fromConfiguration	Using the following resource limits: CPU-time limit of 900s

2020-07-17 13:21:28:872	INFO	CounterexampleCheck:PredicateCPA:PredicateCPA.<init>	Using predicate analysis with MathSAT5 version 5.6.3 (973d615f065f) (May 12 2020 08:45:26, gmp 6.1.0, gcc 4.8.5, 64-bit, reentrant).

2020-07-17 13:21:29:112	WARNING	CounterexampleCheck:PredicateCPA:CtoFormulaConverter.getReturnType	line 48: Return type of function __VERIFIER_nondet_int is void, but result is used as type int: __CPAchecker_TMP_0 = __VERIFIER_nondet_int();

2020-07-17 13:21:29:154	WARNING	CounterexampleCheck:PredicateCPA:CtoFormulaConverter.getReturnType	line 48: Return type of function __VERIFIER_nondet_int is void, but result is used as type int: __CPAchecker_TMP_1 = __VERIFIER_nondet_int();

2020-07-17 13:21:29:168	WARNING	CounterexampleCheck:PredicateCPA:CtoFormulaConverter.getReturnType	line 48: Return type of function __VERIFIER_nondet_int is void, but result is used as type int: __CPAchecker_TMP_2 = __VERIFIER_nondet_int();

2020-07-17 13:21:29:277	INFO	CounterexampleCheckAlgorithm.checkCounterexample	Error path found and confirmed by counterexample check with CPACHECKER.

2020-07-17 13:21:29:282	INFO	OchiaiAlgorithm.run	Start ochiai algorithm ... 

2020-07-17 13:21:29:411	INFO	OchiaiAlgorithm.runOchiaiProcess	[Error suspected on line(s): 22 (Score: 100). (Score: 100)
       HINT: Error suspected on line 22. (Score: 100)
 (0.0%)
       HINT: Error suspected on line 22. (Score: 100)
 (0.0%)
, Error suspected on line(s): 21 (Score: 57). (Score: 57)
       HINT: Error suspected on line 21. (Score: 57)
 (0.0%)
, Error suspected on line(s): 37 (Score: 50). (Score: 50)
       HINT: Error suspected on line 37. (Score: 50)
 (0.0%)
, Error suspected on line(s): 38 (Score: 50). (Score: 50)
       HINT: Error suspected on line 38. (Score: 50)
 (0.0%)
, Error suspected on line(s): 40 (Score: 40). (Score: 40)
       HINT: Error suspected on line 40. (Score: 40)
 (0.0%)
, Error suspected on line(s): 34 (Score: 37). (Score: 37)
       HINT: Error suspected on line 34. (Score: 37)
 (0.0%)
, Error suspected on line(s): 31 (Score: 37). (Score: 37)
       HINT: Error suspected on line 31. (Score: 37)
 (0.0%)
, Error suspected on line(s): 43 (Score: 31). (Score: 31)
       HINT: Error suspected on line 43. (Score: 31)
 (0.0%)
, Error suspected on line(s): 45 (Score: 31). (Score: 31)
       HINT: Error suspected on line 45. (Score: 31)
 (0.0%)
, Error suspected on line(s): 48 (Score: 31). (Score: 31)
       HINT: Error suspected on line 48. (Score: 31)
 (0.0%)
       HINT: Error suspected on line 48. (Score: 31)
 (0.0%)
       HINT: Error suspected on line 48. (Score: 31)
 (0.0%)
       HINT: Error suspected on line 48. (Score: 31)
 (0.0%)
       HINT: Error suspected on line 48. (Score: 31)
 (0.0%)
       HINT: Error suspected on line 48. (Score: 31)
 (0.0%)
       HINT: Error suspected on line 48. (Score: 31)
 (0.0%)
, Error suspected on line(s): 16 (Score: 31). (Score: 31)
       HINT: Error suspected on line 16. (Score: 31)
 (0.0%)
, Error suspected on line(s): 17 (Score: 31). (Score: 31)
       HINT: Error suspected on line 17. (Score: 31)
 (0.0%)
, Error suspected on line(s): 20 (Score: 31). (Score: 31)
       HINT: Error suspected on line 20. (Score: 31)
 (0.0%)
, Error suspected on line(s): 26 (Score: 31). (Score: 31)
       HINT: Error suspected on line 26. (Score: 31)
 (0.0%)
, Error suspected on line(s): 27 (Score: 31). (Score: 31)
       HINT: Error suspected on line 27. (Score: 31)
 (0.0%)
, Error suspected on line(s): 28 (Score: 31). (Score: 31)
       HINT: Error suspected on line 28. (Score: 31)
 (0.0%)
, Error suspected on line(s): 29 (Score: 31). (Score: 31)
       HINT: Error suspected on line 29. (Score: 31)
 (0.0%)
, Error suspected on line(s): 30 (Score: 31). (Score: 31)
       HINT: Error suspected on line 30. (Score: 31)
 (0.0%)
]

2020-07-17 13:21:29:427	INFO	CPAchecker.runAlgorithm	Stopping analysis ...

