# 1 "../fault_localization_tarantula/evaluation/sv-benchmark/arrays/partial_lesser_bound-1/partial_lesser_bound-1.c"
# 1 "<built-in>"
# 1 "<command-line>"
# 31 "<command-line>"
# 1 "/usr/include/stdc-predef.h" 1 3 4
# 32 "<command-line>" 2
# 1 "../fault_localization_tarantula/evaluation/sv-benchmark/arrays/partial_lesser_bound-1/partial_lesser_bound-1.c"
extern void abort(void);
void reach_error(){}
void __VERIFIER_assert(int cond) {
  if (!(cond)) {
    ERROR: {reach_error();abort();}
  }
  return;
}

int a[5];
int i;
int main()
{
 for(i=0;i<5;i++)
 {
 a[i] = 0 ;
 }

 for(i=0;i<5/2;i++)
 {
 a[i] = 100 ;
 }


 for(i=0;i<5/2;i++)
 {
  __VERIFIER_assert(a[i]==10);
 }

 return 0;
}
