2020-06-10 22:05:45:025	INFO	CPAMain.detectFrontendLanguageIfNecessary	Language C detected and set for analysis

2020-06-10 22:05:45:118	INFO	ResourceLimitChecker.fromConfiguration	Using the following resource limits: CPU-time limit of 900s

2020-06-10 22:05:45:327	INFO	CPAchecker.run	CPAchecker 1.9.2-svn / predicateAnalysis (OpenJDK 64-Bit Server VM 11.0.7) started

2020-06-10 22:05:45:404	INFO	CPAchecker.parse	Parsing CFA from file(s) "test/programs/tarantula/benchmarks/bekkouche_benchmark/absminus/AbsMinusKO2.c"

2020-06-10 22:05:46:934	WARNING	CheckBindingVisitor.visit	Undefined function __VERIFIER_nondet_int found, first called in line 48

2020-06-10 22:05:48:251	INFO	PredicateCPA:PredicateCPA.<init>	Using predicate analysis with MathSAT5 version 5.5.4 (bd863fede57e) (Feb 21 2019 15:05:40, gmp 6.1.0, gcc 4.8.5, 64-bit, reentrant) and JFactory 1.21.

2020-06-10 22:05:48:704	INFO	PredicateCPA:PredicateCPARefiner.<init>	Using refinement for predicate analysis with PredicateAbstractionRefinementStrategy strategy.

2020-06-10 22:05:48:729	INFO	CPAchecker.runAlgorithm	Starting analysis ...

2020-06-10 22:05:48:787	WARNING	PredicateCPA:CtoFormulaConverter.getReturnType	line 48: Return type of function __VERIFIER_nondet_int is void, but result is used as type int: __CPAchecker_TMP_0 = __VERIFIER_nondet_int();

2020-06-10 22:05:48:824	WARNING	PredicateCPA:CtoFormulaConverter.getReturnType	line 48: Return type of function __VERIFIER_nondet_int is void, but result is used as type int: __CPAchecker_TMP_1 = __VERIFIER_nondet_int();

2020-06-10 22:05:49:649	INFO	TarantulaAlgorithm.run	Start tarantula algorithm ... 

2020-06-10 22:05:49:810	INFO	TarantulaAlgorithm.getFaultLocations	[Error suspected on line(s): 22 (Score: 100). (Score: 100)
       HINT: Unknown potential fault at Edge ( Label: ERROR ) with suspicious ( 1.0 )  (0.0%)
, Error suspected on line(s): 21 (Score: 82). (Score: 82)
       HINT: Unknown potential fault at Edge ( [cond == 0] ) with suspicious ( 0.828125 )  (0.0%)
, Error suspected on line(s): 35 (Score: 75). (Score: 75)
       HINT: Unknown potential fault at Edge ( result = j - result; ) with suspicious ( 0.7571428571428572 )  (0.0%)
, Error suspected on line(s): 34 (Score: 75). (Score: 75)
       HINT: Unknown potential fault at Edge ( [k == 1] ) with suspicious ( 0.6022727272727273 )  (0.0%)
       HINT: Unknown potential fault at Edge ( [i != j] ) with suspicious ( 0.7571428571428572 )  (0.0%)
, Error suspected on line(s): 41 (Score: 69). (Score: 69)
       HINT: Unknown potential fault at Edge ( int __CPAchecker_TMP_2; ) with suspicious ( 0.5 )  (0.0%)
       HINT: Unknown potential fault at Edge ( [!(i >= j)] ) with suspicious ( 0.6973684210526315 )  (0.0%)
       HINT: Unknown potential fault at Edge ( __VERIFIER_assert(__CPAchecker_TMP_2) ) with suspicious ( 0.6973684210526315 )  (0.0%)
       HINT: Unknown potential fault at Edge ( [i < j] ) with suspicious ( 0.646341463414634 )  (0.0%)
       HINT: Unknown potential fault at Edge ( [!(result == (j - i))] ) with suspicious ( 0.6973684210526315 )  (0.0%)
, Error suspected on line(s): 31 (Score: 67). (Score: 67)
       HINT: Unknown potential fault at Edge ( [i <= j] ) with suspicious ( 0.6708860759493671 )  (0.0%)
, Error suspected on line(s): 32 (Score: 67). (Score: 67)
       HINT: Unknown potential fault at Edge ( k = k + 1; ) with suspicious ( 0.6708860759493671 )  (0.0%)
, Error suspected on line(s): 29 (Score: 50). (Score: 50)
       HINT: Unknown potential fault at Edge ( int result = i + 1; ) with suspicious ( 0.5 )  (0.0%)
, Error suspected on line(s): 30 (Score: 50). (Score: 50)
       HINT: Unknown potential fault at Edge ( int k = 0; ) with suspicious ( 0.5 )  (0.0%)
, Error suspected on line(s): 45 (Score: 50). (Score: 50)
       HINT: Unknown potential fault at Edge ( int main(); ) with suspicious ( 0.5 )  (0.0%)
, Error suspected on line(s): 20 (Score: 50). (Score: 50)
       HINT: Unknown potential fault at Edge ( void __VERIFIER_assert(int cond); ) with suspicious ( 0.5 )  (0.0%)
, Error suspected on line(s): 17 (Score: 50). (Score: 50)
       HINT: Unknown potential fault at Edge ( void __VERIFIER_error(); ) with suspicious ( 0.5 )  (0.0%)
, Error suspected on line(s): 16 (Score: 50). (Score: 50)
       HINT: Unknown potential fault at Edge ( int __VERIFIER_nondet_uint(); ) with suspicious ( 0.5 )  (0.0%)
, Error suspected on line(s): 48 (Score: 50). (Score: 50)
       HINT: Unknown potential fault at Edge ( int __CPAchecker_TMP_0; ) with suspicious ( 0.5 )  (0.0%)
       HINT: Unknown potential fault at Edge ( __CPAchecker_TMP_0 = __VERIFIER_nondet_int(); ) with suspicious ( 0.5 )  (0.0%)
       HINT: Unknown potential fault at Edge ( int __CPAchecker_TMP_1; ) with suspicious ( 0.5 )  (0.0%)
       HINT: Unknown potential fault at Edge ( __CPAchecker_TMP_1 = __VERIFIER_nondet_int(); ) with suspicious ( 0.5 )  (0.0%)
       HINT: Unknown potential fault at Edge ( foo(__CPAchecker_TMP_0, __CPAchecker_TMP_1) ) with suspicious ( 0.5 )  (0.0%)
, Error suspected on line(s): 28 (Score: 50). (Score: 50)
       HINT: Unknown potential fault at Edge ( int foo(int i, int j); ) with suspicious ( 0.5 )  (0.0%)
]

2020-06-10 22:05:49:869	INFO	CPAchecker.runAlgorithm	Stopping analysis ...

