2020-07-17 13:58:28:421	INFO	CPAMain.detectFrontendLanguageIfNecessary	Language C detected and set for analysis

2020-07-17 13:58:28:511	INFO	ResourceLimitChecker.fromConfiguration	Using the following resource limits: CPU-time limit of 900s

2020-07-17 13:58:28:686	INFO	CPAchecker.run	CPAchecker 1.9.2-svn / symbolicExecution (OpenJDK 64-Bit Server VM 11.0.7) started

2020-07-17 13:58:28:732	INFO	CPAchecker.parse	Parsing CFA from file(s) "../fault_localization_tarantula/benchmarks/benchmarks/tarantula/benchmarks/bekkouche_benchmark/absminus/AbsMinusKO3.c"

2020-07-17 13:58:30:550	WARNING	CheckBindingVisitor.visit	Undefined function __VERIFIER_nondet_int found, first called in line 44

2020-07-17 13:58:32:170	INFO	CPAchecker.runAlgorithm	Starting analysis ...

2020-07-17 13:58:32:722	INFO	CounterexampleCheckAlgorithm.checkCounterexample	Error path found, starting counterexample check with CPACHECKER.

2020-07-17 13:58:33:273	INFO	CounterexampleCheck:ResourceLimitChecker.fromConfiguration	Using the following resource limits: CPU-time limit of 900s

2020-07-17 13:58:33:528	INFO	CounterexampleCheck:PredicateCPA:PredicateCPA.<init>	Using predicate analysis with MathSAT5 version 5.6.3 (973d615f065f) (May 12 2020 08:45:26, gmp 6.1.0, gcc 4.8.5, 64-bit, reentrant).

2020-07-17 13:58:33:673	WARNING	CounterexampleCheck:PredicateCPA:CtoFormulaConverter.getReturnType	line 44: Return type of function __VERIFIER_nondet_int is void, but result is used as type int: __CPAchecker_TMP_0 = __VERIFIER_nondet_int();

2020-07-17 13:58:33:698	WARNING	CounterexampleCheck:PredicateCPA:CtoFormulaConverter.getReturnType	line 44: Return type of function __VERIFIER_nondet_int is void, but result is used as type int: __CPAchecker_TMP_1 = __VERIFIER_nondet_int();

2020-07-17 13:58:33:837	INFO	CounterexampleCheckAlgorithm.checkCounterexample	Error path found and confirmed by counterexample check with CPACHECKER.

2020-07-17 13:58:33:846	INFO	OchiaiAlgorithm.run	Start ochiai algorithm ... 

2020-07-17 13:58:33:952	INFO	OchiaiAlgorithm.runOchiaiProcess	[Error suspected on line(s): 39 (Score: 100). (Score: 100)
       HINT: Error suspected on line 39. (Score: 50)
 (0.0%)
       HINT: Error suspected on line 39. (Score: 50)
 (0.0%)
       HINT: Error suspected on line 39. (Score: 100)
 (0.0%)
       HINT: Error suspected on line 39. (Score: 100)
 (0.0%)
       HINT: Error suspected on line 39. (Score: 70)
 (0.0%)
, Error suspected on line(s): 20 (Score: 100). (Score: 100)
       HINT: Error suspected on line 20. (Score: 100)
 (0.0%)
, Error suspected on line(s): 21 (Score: 100). (Score: 100)
       HINT: Error suspected on line 21. (Score: 100)
 (0.0%)
       HINT: Error suspected on line 21. (Score: 100)
 (0.0%)
, Error suspected on line(s): 29 (Score: 57). (Score: 57)
       HINT: Error suspected on line 29. (Score: 57)
 (0.0%)
, Error suspected on line(s): 30 (Score: 57). (Score: 57)
       HINT: Error suspected on line 30. (Score: 57)
 (0.0%)
, Error suspected on line(s): 32 (Score: 50). (Score: 50)
       HINT: Error suspected on line 32. (Score: 50)
 (0.0%)
, Error suspected on line(s): 36 (Score: 50). (Score: 50)
       HINT: Error suspected on line 36. (Score: 50)
 (0.0%)
, Error suspected on line(s): 41 (Score: 50). (Score: 50)
       HINT: Error suspected on line 41. (Score: 50)
 (0.0%)
, Error suspected on line(s): 44 (Score: 50). (Score: 50)
       HINT: Error suspected on line 44. (Score: 50)
 (0.0%)
       HINT: Error suspected on line 44. (Score: 50)
 (0.0%)
       HINT: Error suspected on line 44. (Score: 50)
 (0.0%)
       HINT: Error suspected on line 44. (Score: 50)
 (0.0%)
       HINT: Error suspected on line 44. (Score: 50)
 (0.0%)
, Error suspected on line(s): 15 (Score: 50). (Score: 50)
       HINT: Error suspected on line 15. (Score: 50)
 (0.0%)
, Error suspected on line(s): 16 (Score: 50). (Score: 50)
       HINT: Error suspected on line 16. (Score: 50)
 (0.0%)
, Error suspected on line(s): 19 (Score: 50). (Score: 50)
       HINT: Error suspected on line 19. (Score: 50)
 (0.0%)
, Error suspected on line(s): 26 (Score: 50). (Score: 50)
       HINT: Error suspected on line 26. (Score: 50)
 (0.0%)
, Error suspected on line(s): 27 (Score: 50). (Score: 50)
       HINT: Error suspected on line 27. (Score: 50)
 (0.0%)
, Error suspected on line(s): 28 (Score: 50). (Score: 50)
       HINT: Error suspected on line 28. (Score: 50)
 (0.0%)
]

2020-07-17 13:58:33:968	INFO	CPAchecker.runAlgorithm	Stopping analysis ...

