2020-07-17 14:17:27:963	INFO	CPAMain.detectFrontendLanguageIfNecessary	Language C detected and set for analysis

2020-07-17 14:17:28:081	INFO	ResourceLimitChecker.fromConfiguration	Using the following resource limits: CPU-time limit of 900s

2020-07-17 14:17:28:263	INFO	CPAchecker.run	CPAchecker 1.9.2-svn / symbolicExecution (OpenJDK 64-Bit Server VM 11.0.7) started

2020-07-17 14:17:28:331	INFO	CPAchecker.parse	Parsing CFA from file(s) "../fault_localization_tarantula/benchmarks/benchmarks/tarantula/benchmarks/bekkouche_benchmark/triperim/TriPerimetreKO.c"

2020-07-17 14:17:30:040	WARNING	CheckBindingVisitor.visit	Undefined function __VERIFIER_nondet_int found, first called in line 102

2020-07-17 14:17:31:868	INFO	CPAchecker.runAlgorithm	Starting analysis ...

2020-07-17 14:17:33:960	INFO	CounterexampleCheckAlgorithm.checkCounterexample	Error path found, starting counterexample check with CPACHECKER.

2020-07-17 14:17:34:535	INFO	CounterexampleCheck:ResourceLimitChecker.fromConfiguration	Using the following resource limits: CPU-time limit of 900s

2020-07-17 14:17:34:823	INFO	CounterexampleCheck:PredicateCPA:PredicateCPA.<init>	Using predicate analysis with MathSAT5 version 5.6.3 (973d615f065f) (May 12 2020 08:45:26, gmp 6.1.0, gcc 4.8.5, 64-bit, reentrant).

2020-07-17 14:17:34:944	WARNING	CounterexampleCheck:PredicateCPA:CtoFormulaConverter.getReturnType	line 102: Return type of function __VERIFIER_nondet_int is void, but result is used as type int: __CPAchecker_TMP_0 = __VERIFIER_nondet_int();

2020-07-17 14:17:34:955	WARNING	CounterexampleCheck:PredicateCPA:CtoFormulaConverter.getReturnType	line 102: Return type of function __VERIFIER_nondet_int is void, but result is used as type int: __CPAchecker_TMP_1 = __VERIFIER_nondet_int();

2020-07-17 14:17:34:964	WARNING	CounterexampleCheck:PredicateCPA:CtoFormulaConverter.getReturnType	line 102: Return type of function __VERIFIER_nondet_int is void, but result is used as type int: __CPAchecker_TMP_2 = __VERIFIER_nondet_int();

2020-07-17 14:17:35:137	INFO	CounterexampleCheckAlgorithm.checkCounterexample	Error path found and confirmed by counterexample check with CPACHECKER.

2020-07-17 14:17:35:146	INFO	DStarAlgorithm.run	Start DStar algorithm ... 

2020-07-17 14:17:35:303	INFO	DStarAlgorithm.runDStarProcess	[Error suspected on line(s): 77 (Score: 100). (Score: 100)
       HINT: Error suspected on line 77. (Score: 100)
 (0.0%)
, Error suspected on line(s): 94 (Score: 100). (Score: 100)
       HINT: Error suspected on line 94. (Score: 14)
 (0.0%)
       HINT: Error suspected on line 94. (Score: 100)
 (0.0%)
       HINT: Error suspected on line 94. (Score: 7)
 (0.0%)
       HINT: Error suspected on line 94. (Score: 11)
 (0.0%)
       HINT: Error suspected on line 94. (Score: 10)
 (0.0%)
       HINT: Error suspected on line 94. (Score: 100)
 (0.0%)
       HINT: Error suspected on line 94. (Score: 33)
 (0.0%)
       HINT: Error suspected on line 94. (Score: 9)
 (0.0%)
       HINT: Error suspected on line 94. (Score: 20)
 (0.0%)
       HINT: Error suspected on line 94. (Score: 33)
 (0.0%)
       HINT: Error suspected on line 94. (Score: 8)
 (0.0%)
       HINT: Error suspected on line 94. (Score: 16)
 (0.0%)
       HINT: Error suspected on line 94. (Score: 50)
 (0.0%)
       HINT: Error suspected on line 94. (Score: 10)
 (0.0%)
       HINT: Error suspected on line 94. (Score: 100)
 (0.0%)
       HINT: Error suspected on line 94. (Score: 25)
 (0.0%)
       HINT: Error suspected on line 94. (Score: 25)
 (0.0%)
       HINT: Error suspected on line 94. (Score: 33)
 (0.0%)
       HINT: Error suspected on line 94. (Score: 33)
 (0.0%)
       HINT: Error suspected on line 94. (Score: 33)
 (0.0%)
       HINT: Error suspected on line 94. (Score: 16)
 (0.0%)
, Error suspected on line(s): 51 (Score: 50). (Score: 50)
       HINT: Error suspected on line 51. (Score: 50)
 (0.0%)
, Error suspected on line(s): 52 (Score: 50). (Score: 50)
       HINT: Error suspected on line 52. (Score: 50)
 (0.0%)
, Error suspected on line(s): 72 (Score: 33). (Score: 33)
       HINT: Error suspected on line 72. (Score: 33)
 (0.0%)
, Error suspected on line(s): 68 (Score: 20). (Score: 20)
       HINT: Error suspected on line 68. (Score: 20)
 (0.0%)
, Error suspected on line(s): 57 (Score: 16). (Score: 16)
       HINT: Error suspected on line 57. (Score: 16)
 (0.0%)
, Error suspected on line(s): 48 (Score: 14). (Score: 14)
       HINT: Error suspected on line 48. (Score: 14)
 (0.0%)
, Error suspected on line(s): 54 (Score: 14). (Score: 14)
       HINT: Error suspected on line 54. (Score: 14)
 (0.0%)
, Error suspected on line(s): 42 (Score: 10). (Score: 10)
       HINT: Error suspected on line 42. (Score: 9)
 (0.0%)
       HINT: Error suspected on line 42. (Score: 8)
 (0.0%)
       HINT: Error suspected on line 42. (Score: 10)
 (0.0%)
, Error suspected on line(s): 47 (Score: 10). (Score: 10)
       HINT: Error suspected on line 47. (Score: 10)
 (0.0%)
, Error suspected on line(s): 99 (Score: 7). (Score: 7)
       HINT: Error suspected on line 99. (Score: 7)
 (0.0%)
, Error suspected on line(s): 102 (Score: 7). (Score: 7)
       HINT: Error suspected on line 102. (Score: 7)
 (0.0%)
       HINT: Error suspected on line 102. (Score: 7)
 (0.0%)
       HINT: Error suspected on line 102. (Score: 7)
 (0.0%)
       HINT: Error suspected on line 102. (Score: 7)
 (0.0%)
       HINT: Error suspected on line 102. (Score: 7)
 (0.0%)
       HINT: Error suspected on line 102. (Score: 7)
 (0.0%)
       HINT: Error suspected on line 102. (Score: 7)
 (0.0%)
, Error suspected on line(s): 39 (Score: 7). (Score: 7)
       HINT: Error suspected on line 39. (Score: 7)
 (0.0%)
, Error suspected on line(s): 40 (Score: 7). (Score: 7)
       HINT: Error suspected on line 40. (Score: 7)
 (0.0%)
, Error suspected on line(s): 41 (Score: 7). (Score: 7)
       HINT: Error suspected on line 41. (Score: 7)
 (0.0%)
, Error suspected on line(s): 19 (Score: 7). (Score: 7)
       HINT: Error suspected on line 19. (Score: 7)
 (0.0%)
, Error suspected on line(s): 20 (Score: 7). (Score: 7)
       HINT: Error suspected on line 20. (Score: 7)
 (0.0%)
, Error suspected on line(s): 23 (Score: 7). (Score: 7)
       HINT: Error suspected on line 23. (Score: 7)
 (0.0%)
]

2020-07-17 14:17:35:354	INFO	CPAchecker.runAlgorithm	Stopping analysis ...

