Error: abort failure
File: ../fault_localization_tarantula/evaluation/sv-benchmark/arrays/sanfoundary_24-1/sanfoundary_24-1.c
Line: 4
assembly.ll line: 30
Stack: 
	#000000030 in __VERIFIER_assert_klee_main_module () at ../fault_localization_tarantula/evaluation/sv-benchmark/arrays/sanfoundary_24-1/sanfoundary_24-1.c:4
	#100000045 in printEven_klee_main_module () at ../fault_localization_tarantula/evaluation/sv-benchmark/arrays/sanfoundary_24-1/sanfoundary_24-1.c:13
	#200000095 in main () at ../fault_localization_tarantula/evaluation/sv-benchmark/arrays/sanfoundary_24-1/sanfoundary_24-1.c:38
