2020-07-17 14:27:51:312	INFO	CPAMain.detectFrontendLanguageIfNecessary	Language C detected and set for analysis

2020-07-17 14:27:51:372	INFO	ResourceLimitChecker.fromConfiguration	Using the following resource limits: CPU-time limit of 900s

2020-07-17 14:27:51:560	INFO	CPAchecker.run	CPAchecker 1.9.2-svn / symbolicExecution (OpenJDK 64-Bit Server VM 11.0.7) started

2020-07-17 14:27:51:617	INFO	CPAchecker.parse	Parsing CFA from file(s) "../fault_localization_tarantula/benchmarks/benchmarks/tarantula/benchmarks/bekkouche_benchmark/tritype/TritypeKO3.c"

2020-07-17 14:27:53:090	WARNING	CheckBindingVisitor.visit	Undefined function __VERIFIER_nondet_int found, first called in line 98

2020-07-17 14:27:54:686	INFO	CPAchecker.runAlgorithm	Starting analysis ...

2020-07-17 14:27:56:786	INFO	CounterexampleCheckAlgorithm.checkCounterexample	Error path found, starting counterexample check with CPACHECKER.

2020-07-17 14:27:57:317	INFO	CounterexampleCheck:ResourceLimitChecker.fromConfiguration	Using the following resource limits: CPU-time limit of 900s

2020-07-17 14:27:57:614	INFO	CounterexampleCheck:PredicateCPA:PredicateCPA.<init>	Using predicate analysis with MathSAT5 version 5.6.3 (973d615f065f) (May 12 2020 08:45:26, gmp 6.1.0, gcc 4.8.5, 64-bit, reentrant).

2020-07-17 14:27:57:732	WARNING	CounterexampleCheck:PredicateCPA:CtoFormulaConverter.getReturnType	line 98: Return type of function __VERIFIER_nondet_int is void, but result is used as type int: __CPAchecker_TMP_0 = __VERIFIER_nondet_int();

2020-07-17 14:27:57:741	WARNING	CounterexampleCheck:PredicateCPA:CtoFormulaConverter.getReturnType	line 98: Return type of function __VERIFIER_nondet_int is void, but result is used as type int: __CPAchecker_TMP_1 = __VERIFIER_nondet_int();

2020-07-17 14:27:57:751	WARNING	CounterexampleCheck:PredicateCPA:CtoFormulaConverter.getReturnType	line 98: Return type of function __VERIFIER_nondet_int is void, but result is used as type int: __CPAchecker_TMP_2 = __VERIFIER_nondet_int();

2020-07-17 14:27:57:911	INFO	CounterexampleCheckAlgorithm.checkCounterexample	Error path found and confirmed by counterexample check with CPACHECKER.

2020-07-17 14:27:57:918	INFO	OchiaiAlgorithm.run	Start ochiai algorithm ... 

2020-07-17 14:27:58:040	INFO	OchiaiAlgorithm.runOchiaiProcess	[Error suspected on line(s): 25 (Score: 100). (Score: 100)
       HINT: Error suspected on line 25. (Score: 100)
 (0.0%)
, Error suspected on line(s): 26 (Score: 100). (Score: 100)
       HINT: Error suspected on line 26. (Score: 100)
 (0.0%)
       HINT: Error suspected on line 26. (Score: 100)
 (0.0%)
, Error suspected on line(s): 74 (Score: 70). (Score: 70)
       HINT: Error suspected on line 74. (Score: 70)
 (0.0%)
       HINT: Error suspected on line 74. (Score: 50)
 (0.0%)
, Error suspected on line(s): 90 (Score: 70). (Score: 70)
       HINT: Error suspected on line 90. (Score: 40)
 (0.0%)
       HINT: Error suspected on line 90. (Score: 33)
 (0.0%)
       HINT: Error suspected on line 90. (Score: 31)
 (0.0%)
       HINT: Error suspected on line 90. (Score: 33)
 (0.0%)
       HINT: Error suspected on line 90. (Score: 50)
 (0.0%)
       HINT: Error suspected on line 90. (Score: 27)
 (0.0%)
       HINT: Error suspected on line 90. (Score: 28)
 (0.0%)
       HINT: Error suspected on line 90. (Score: 40)
 (0.0%)
       HINT: Error suspected on line 90. (Score: 25)
 (0.0%)
       HINT: Error suspected on line 90. (Score: 40)
 (0.0%)
       HINT: Error suspected on line 90. (Score: 35)
 (0.0%)
       HINT: Error suspected on line 90. (Score: 70)
 (0.0%)
       HINT: Error suspected on line 90. (Score: 40)
 (0.0%)
       HINT: Error suspected on line 90. (Score: 37)
 (0.0%)
       HINT: Error suspected on line 90. (Score: 50)
 (0.0%)
       HINT: Error suspected on line 90. (Score: 70)
 (0.0%)
       HINT: Error suspected on line 90. (Score: 25)
 (0.0%)
       HINT: Error suspected on line 90. (Score: 50)
 (0.0%)
       HINT: Error suspected on line 90. (Score: 37)
 (0.0%)
       HINT: Error suspected on line 90. (Score: 27)
 (0.0%)
       HINT: Error suspected on line 90. (Score: 35)
 (0.0%)
       HINT: Error suspected on line 90. (Score: 26)
 (0.0%)
       HINT: Error suspected on line 90. (Score: 37)
 (0.0%)
, Error suspected on line(s): 78 (Score: 57). (Score: 57)
       HINT: Error suspected on line 78. (Score: 57)
 (0.0%)
, Error suspected on line(s): 82 (Score: 50). (Score: 50)
       HINT: Error suspected on line 82. (Score: 50)
 (0.0%)
, Error suspected on line(s): 50 (Score: 44). (Score: 44)
       HINT: Error suspected on line 50. (Score: 44)
 (0.0%)
, Error suspected on line(s): 51 (Score: 44). (Score: 44)
       HINT: Error suspected on line 51. (Score: 44)
 (0.0%)
, Error suspected on line(s): 69 (Score: 40). (Score: 40)
       HINT: Error suspected on line 69. (Score: 40)
 (0.0%)
, Error suspected on line(s): 65 (Score: 35). (Score: 35)
       HINT: Error suspected on line 65. (Score: 35)
 (0.0%)
, Error suspected on line(s): 56 (Score: 33). (Score: 33)
       HINT: Error suspected on line 56. (Score: 33)
 (0.0%)
, Error suspected on line(s): 47 (Score: 31). (Score: 31)
       HINT: Error suspected on line 47. (Score: 31)
 (0.0%)
, Error suspected on line(s): 53 (Score: 31). (Score: 31)
       HINT: Error suspected on line 53. (Score: 31)
 (0.0%)
, Error suspected on line(s): 42 (Score: 27). (Score: 27)
       HINT: Error suspected on line 42. (Score: 27)
 (0.0%)
       HINT: Error suspected on line 42. (Score: 26)
 (0.0%)
       HINT: Error suspected on line 42. (Score: 25)
 (0.0%)
, Error suspected on line(s): 46 (Score: 27). (Score: 27)
       HINT: Error suspected on line 46. (Score: 27)
 (0.0%)
, Error suspected on line(s): 98 (Score: 25). (Score: 25)
       HINT: Error suspected on line 98. (Score: 25)
 (0.0%)
       HINT: Error suspected on line 98. (Score: 25)
 (0.0%)
       HINT: Error suspected on line 98. (Score: 25)
 (0.0%)
       HINT: Error suspected on line 98. (Score: 25)
 (0.0%)
       HINT: Error suspected on line 98. (Score: 25)
 (0.0%)
       HINT: Error suspected on line 98. (Score: 25)
 (0.0%)
       HINT: Error suspected on line 98. (Score: 25)
 (0.0%)
, Error suspected on line(s): 40 (Score: 25). (Score: 25)
       HINT: Error suspected on line 40. (Score: 25)
 (0.0%)
, Error suspected on line(s): 41 (Score: 25). (Score: 25)
       HINT: Error suspected on line 41. (Score: 25)
 (0.0%)
, Error suspected on line(s): 20 (Score: 25). (Score: 25)
       HINT: Error suspected on line 20. (Score: 25)
 (0.0%)
, Error suspected on line(s): 21 (Score: 25). (Score: 25)
       HINT: Error suspected on line 21. (Score: 25)
 (0.0%)
, Error suspected on line(s): 24 (Score: 25). (Score: 25)
       HINT: Error suspected on line 24. (Score: 25)
 (0.0%)
, Error suspected on line(s): 95 (Score: 25). (Score: 25)
       HINT: Error suspected on line 95. (Score: 25)
 (0.0%)
]

2020-07-17 14:27:58:087	INFO	CPAchecker.runAlgorithm	Stopping analysis ...

